module fate-bot

go 1.22

require github.com/bwmarrin/discordgo v0.27.1

require (
	github.com/gorilla/websocket v1.5.1 // indirect
	golang.org/x/crypto v0.21.0 // indirect
	golang.org/x/net v0.22.0 // indirect
	golang.org/x/sys v0.18.0 // indirect
)
